Data Cleaning
…
Ok, the types are not what we were expecting for the percentages of cover. Let’s find out why:

snowsurvey_csv %>%
  count(Snow_cover)

# A tibble: 62 × 2
   Snow_cover     n
   <chr>      <int>
 1 -             10
 2 .            568
 3 0          24823
 4 1             15
 5 1.25           1
 6 1.65           1
 7 10          2106
 8 10.45          1
 9 100         3086
10 15           538
# ℹ 52 more rows
…
Same pattern, let’s substitute with NA:

unk values

What about “unk”? It is probably an abbreviation for unknown:

snowsurvey_fixed <- snowsurvey_fixed %>% 
  mutate(Snow_cover = ifelse(Snow_cover == "n/a", NA, Snow_cover)) %>% 
  mutate(Snow_cover = ifelse(Snow_cover == "unk", NA, Snow_cover))

snowsurvey_fixed %>% 
  count(Snow_cover)

# A tibble: 58 × 2
   Snow_cover     n
   <chr>      <int>
 1 0          24823
 2 1             15
 3 1.25           1
 4 1.65           1
 5 10          2106
 6 10.45          1
 7 100         3086
 8 15           538
 9 16.4           1
10 17             1
# ℹ 48 more rows

<1 values

Finally What should we replace”<1” with?

snowsurvey_fixed <- snowsurvey_fixed %>% 
  mutate(Snow_cover = ifelse(Snow_cover == "<1", 0, Snow_cover)) 

snowsurvey_fixed %>% 
  count(Snow_cover)

# A tibble: 57 × 2
   Snow_cover     n
   <chr>      <int>
 1 0          24824
 2 1             15
 3 1.25           1
 4 1.65           1
 5 10          2106
 6 10.45          1
 7 100         3086
 8 15           538
 9 16.4           1
10 17             1
# ℹ 47 more rows
…
We want to focus on the presence and absence of species and not the count. Let’s create a new column for presence where anything else than 0 is considered present

species_presence <- species_long %>%
  mutate(Presence = ifelse(Presence == 0, 0, 1))

We can remove some columns: “Num_observers”, “All_obs_reported”, “Observer_hours” are here to help to compute the effort of observation but since we just want presence and absence, we do not need it. We can also remove all the zeros values to reduce the size of our data set:

Last but not least, let’s have a look at our species list

species_presence %>%
  filter(Presence == 1) %>%
  count(Species) %>%
  arrange(desc(n))

# A tibble: 319 × 2
   Species                    n
   <chr>                  <int>
 1 Parasitic_Jaeger        2687
 2 Lapland_Longspur        2565
 3 Dunlin                  2560
 4 Northern_Pintail        2476
 5 Glaucous_Gull           2429
 6 Semipalmated_Sandpiper  2403
 7 Red_necked_Phalarope    2395
 8 Pacific_Loon            2393
 9 Long_tailed_Duck        2346
10 Pectoral_Sandpiper      2080
# ℹ 309 more rows
…
